{
  "swagger": "2.0",
  "info": {
    "version": "",
    "title": "Cats API Core"
  },
  "host": "meowle.qa-fintech.tcsbank.ru",
  "basePath": "/api/core",
  "schemes": [
    "https"
  ],
  "paths": {
    "/cats/add": {
      "post": {
        "tags": [
          "Core"
        ],
        "summary": "Добавление списка имен",
        "description": "",
        "consumes": [
          "application/json"
        ],
        "produces": [
          "application/json"
        ],
        "parameters": [
          {
            "in": "body",
            "name": "body",
            "description": "Список с именами и полом",
            "required": true,
            "schema": {
              "$ref": "#/definitions/CatAddRequest"
            }
          }
        ],
        "responses": {
          "200": {
            "description": "ok",
            "schema": {
              "$ref": "#/definitions/CatAddResponse"
            }
          }
        }
      }
    },
    "/cats/get-by-id": {
      "get": {
        "tags": [
          "Core"
        ],
        "summary": "Получение кота по ID",
        "parameters": [
          {
            "name": "id",
            "in": "query",
            "description": "ID кота",
            "required": true,
            "type": "string"
          }
        ],
        "responses": {
          "200": {
            "description": "ok"
          }
        }
      }
    },
    "/cats/search": {
      "post": {
        "tags": [
          "Core"
        ],
        "summary": "Поиск по имени и доп.характеристикам",
        "description": "",
        "consumes": [
          "application/json"
        ],
        "produces": [
          "application/json"
        ],
        "parameters": [
          {
            "in": "body",
            "name": "body",
            "description": "Список с именами и полом",
            "required": true,
            "schema": {
              "$ref": "#/definitions/Search"
            }
          }
        ],
        "responses": {
          "200": {
            "description": "ok",
            "schema": {
              "$ref": "#/definitions/Groups"
            }
          }
        }
      }
    },
    "/cats/search-pattern": {
      "get": {
        "tags": [
          "Core"
        ],
        "summary": "Поиск по части начала имени",
        "parameters": [
          {
            "name": "name",
            "in": "query",
            "description": "Часть начала имени",
            "required": true,
            "type": "string"
          },
          {
            "name": "limit",
            "in": "query",
            "description": "Ограничение вывода количества имен",
            "required": false,
            "type": "number"
          }
        ],
        "responses": {
          "200": {
            "description": "Список имен"
          }
        }
      }
    },
    "/cats/save-description": {
      "post": {
        "tags": [
          "Core"
        ],
        "summary": "Сохранение описания имени",
        "description": "",
        "consumes": [
          "application/json"
        ],
        "produces": [
          "application/json"
        ],
        "parameters": [
          {
            "in": "body",
            "name": "body",
            "description": "ID кота и описание",
            "required": true,
            "schema": {
              "$ref": "#/definitions/SaveDescription"
            }
          }
        ],
        "responses": {
          "200": {
            "description": "Имена по группам алфавита с их количеством",
            "schema": {
              "$ref": "#/definitions/Cat"
            }
          }
        }
      }
    },
    "/cats/validation": {
      "get": {
        "tags": [
          "Core"
        ],
        "summary": "Сохранение описания имени",
        "responses": {
          "200": {
            "description": "ok",
            "schema": {
              "$ref": "#/definitions/Validation"
            }
          }
        }
      }
    },
    "/cats/all": {
      "get": {
        "tags": [
          "Core"
        ],
        "summary": "Список всех имен",
        "responses": {
          "200": {
            "description": "Список всех имен",
            "schema": {
              "$ref": "#/definitions/Groups"
            }
          }
        }
      }
    },
    "/cats/{catId}/remove": {
      "delete": {
        "tags": [
          "Core"
        ],
        "summary": "Удаления кота",
        "parameters": [
          {
            "name": "catId",
            "in": "path",
            "description": "ID кота для удаления",
            "required": true,
            "type": "number"
          }
        ],
        "responses": {
          "200": {
            "description": "ok"
          }
        }
      }
    }
  },
  "definitions": {
    "GenderEnum": {
      "type": "string",
      "description": "Пол кота",
      "enum": [
        "male",
        "female",
        "unisex"
      ]
    },
    "Cat": {
      "type": "object",
      "properties": {
        "id": {
          "type": "integer",
          "format": "int32"
        },
        "name": {
          "type": "string"
        },
        "description": {
          "type": "string"
        },
        "tags": {
          "type": "array",
          "items": {
            "type": "string"
          }
        },
        "gender": {
          "$ref": "#/definitions/GenderEnum"
        },
        "likes": {
          "type": "integer",
          "format": "int32"
        },
        "dislikes": {
          "type": "integer",
          "format": "int32"
        }
      }
    },
    "CatAddRequest": {
      "type": "object",
      "properties": {
        "cats": {
          "type": "array",
          "items": {
            "type": "object",
            "properties": {
              "name": {
                "description": "Имя кота",
                "type": "string"
              },
              "description": {
                "description": "Описание кота",
                "type": "string"
              },
              "gender": {
                "$ref": "#/definitions/GenderEnum"
              }
            }
          }
        }
      }
    },
    "CatAddResponse": {
      "type": "object",
      "properties": {
        "cats": {
          "type": "array",
          "items": {
            "type": "object",
            "properties": {
              "id": {
                "type": "number"
              },
              "name": {
                "description": "Имя кота",
                "type": "string"
              },
              "description": {
                "description": "Описание кота",
                "type": "string"
              },
              "gender": {
                "$ref": "#/definitions/GenderEnum"
              },
              "likes": {
                "type": "number"
              },
              "dislikes": {
                "type": "number"
              },
              "tags": {
                "type": "string"
              }
            }
          }
        }
      }
    },
    "Search": {
      "type": "object",
      "properties": {
        "name": {
          "type": "string"
        },
        "gender": {
          "$ref": "#/definitions/GenderEnum"
        },
        "order": {
          "type": "string",
          "enum": [
            "asc",
            "desc"
          ]
        }
      }
    },
    "SaveDescription": {
      "type": "object",
      "properties": {
        "catId": {
          "description": "ID кота",
          "type": "number"
        },
        "catDescription": {
          "description": "Описание имени",
          "type": "string"
        }
      }
    },
    "Validation": {
      "type": "array",
      "items": {
        "type": "object",
        "properties": {
          "id": {
            "type": "string"
          },
          "description": {
            "type": "string"
          },
          "regex": {
            "type": "string"
          },
          "type": {
            "type": "string"
          }
        }
      }
    },
    "Groups": {
      "type": "object",
      "properties": {
        "groups": {
          "type": "array",
          "items": {
            "type": "object",
            "properties": {
              "title": {
                "type": "string",
                "description": "Заголовок группы имён (первая буква имени)"
              },
              "count": {
                "type": "number",
                "description": "Количество имён в группе"
              },
              "cats": {
                "type": "array",
                "items": {
                  "$ref": "#/definitions/Cat"
                }
              }
            }
          }
        }
      }
    }
  }
}
